1 10 20
100 200 125
201 210 89
900 1000 174
1 999999 525
999999 1 525
999999 999999 259
1 1 1
1 999 179
1000 1999 182
2000 2999 217
3000 3999 238
4000 4999 215
5000 5999 236
6000 6999 262
7000 7999 252
8000 8999 247
9000 9999 260
1 9999 262
10000 19999 279
20000 29999 308
30000 39999 324
40000 49999 314
50000 59999 340
60000 69999 335
70000 79999 351
80000 89999 333
90000 99999 333
100000 109999 354
110000 119999 349
120000 129999 344
130000 139999 344
140000 149999 375
150000 159999 383
160000 169999 370
170000 179999 347
180000 189999 365
190000 199999 360
200000 209999 373
210000 219999 386
220000 229999 368
230000 239999 443
240000 249999 368
250000 259999 363
260000 269999 407
270000 279999 407
280000 289999 389
290000 299999 371
300000 309999 371
310000 319999 384
320000 329999 384
330000 339999 366
340000 349999 441
350000 359999 379
360000 369999 410
370000 379999 423
380000 389999 436
390000 399999 405
400000 409999 405
410000 419999 449
420000 429999 418
430000 439999 400
440000 449999 369
450000 459999 387
460000 469999 444
470000 479999 382
480000 489999 413
490000 499999 426
500000 509999 426
510000 519999 470
520000 529999 408
530000 539999 377
540000 549999 452
550000 559999 421
560000 569999 421
570000 579999 390
580000 589999 434
590000 599999 403
600000 609999 403
610000 619999 447
620000 629999 509
630000 639999 416
640000 649999 416
650000 659999 429
660000 669999 442
670000 679999 385
680000 689999 398
690000 699999 442
700000 709999 504
710000 719999 411
720000 729999 411
730000 739999 424
740000 749999 393
750000 759999 424
760000 769999 468
770000 779999 437
780000 789999 406
790000 799999 468
800000 809999 406
810000 819999 450
820000 829999 450
830000 839999 525
840000 849999 419
850000 859999 419
860000 869999 388
870000 879999 432
880000 889999 445
890000 899999 370
900000 909999 445
910000 919999 476
920000 929999 476
930000 939999 507
940000 949999 383
950000 959999 414
960000 969999 414
970000 979999 458
980000 989999 427
990000 999999 440
999999 990000 440
989999 980000 427
1234 2345 183
12345 23456 279
123456 234567 443
98765 87655 333
122 1923 182
12934 19248 279
596823 696843 509
